Division,WeightClassKg,Place,Name,Team,BodyweightKg,Best3SquatKg,Best3BenchKg,Best3DeadliftKg,TotalKg,Equipment,Event,Sex
Boys,51.71,1,Mikey Gomez,Kyle Lehman,51.3,117.93,70.31,140.61,328.85,Single-ply,SBD,M
Boys,51.71,2,Jose Ramirez #5,Kyle Lehman,51.71,104.33,56.7,113.4,274.42,Single-ply,SBD,M
Boys,51.71,3,Michael Ortiz,Somerset,49.8,58.97,49.9,106.59,215.46,Single-ply,SBD,M
Boys,55.79,1,Raul Garcia,Cotulla,55.38,142.88,92.99,149.69,385.55,Single-ply,SBD,M
Boys,55.79,2,Sebastian Estrada,Somerset,55.79,90.72,68.04,136.08,294.84,Single-ply,SBD,M
Boys,67.13,1,Mark Livesay,Floresville,59.96,161.03,104.33,181.44,446.79,Single-ply,SBD,M
Boys,59.87,2,Jayden Martinez,Kyle Lehman,58.56,117.93,88.45,154.22,360.61,Single-ply,SBD,M
Boys,67.13,3,Jacob Acosta,San Marcos,59.92,120.2,74.84,131.54,326.59,Single-ply,SBD,M
Boys,67.13,4,Jesse Zimmell,Bandera,60.1,113.4,70.31,131.54,315.25,Single-ply,SBD,M
Boys,59.87,5,Luis Galaviz,San Antonio Kennedy,57.29,102.06,68.04,142.88,312.98,Single-ply,SBD,M
Boys,67.13,1,Jose Flores #3,San Antonio Kennedy,66.09,167.83,111.13,204.12,483.08,Single-ply,SBD,M
Boys,67.13,2,Calvin Starnes,Bandera,66.95,179.17,99.79,188.24,467.2,Single-ply,SBD,M
Boys,74.84,3,Juan Medina,Floresville,67.36,185.97,111.13,170.1,467.2,Single-ply,SBD,M
Boys,67.13,4,Andre Garza,Cotulla,66.9,158.76,92.99,165.56,417.3,Single-ply,SBD,M
Boys,67.13,5,Storm Brown,Floresville,64.46,140.61,95.25,170.1,405.97,Single-ply,SBD,M
Boys,67.13,6,Toni Lorenzo,Comfort,66,138.35,90.72,161.03,390.09,Single-ply,SBD,M
Boys,67.13,7,Valentin Sanchez,Three Rivers,66.95,142.88,79.38,156.49,378.75,Single-ply,SBD,M
Boys,67.13,8,Mikal Luna,Cotulla,62.05,136.08,79.38,147.42,362.87,Single-ply,SBD,M
Boys,67.13,9,Tristan Watson,Bandera,60.87,136.08,77.11,145.15,358.34,Single-ply,SBD,M
Boys,67.13,10,Angel Martinez #5,Cotulla,64.64,122.47,83.91,133.81,340.19,Single-ply,SBD,M
Boys,67.13,11,Arturo Rodriguez,San Antonio Kennedy,65.45,120.2,74.84,142.88,337.93,Single-ply,SBD,M
Boys,67.13,12,Bernardo Flores,Cotulla,66.36,113.4,70.31,136.08,319.78,Single-ply,SBD,M
Boys,67.13,13,Anthony Carlos,Comfort,65.63,108.86,65.77,136.08,310.71,Single-ply,SBD,M
Boys,67.13,DQ,Jaylon Avila,Somerset,62.41,,,,,Single-ply,SBD,M
Boys,74.84,1,Craig Wells,San Antonio Brooks Academy,74.3,190.51,127.01,226.8,544.31,Single-ply,SBD,M
Boys,74.84,2,Jonathan Daughtery,Bandera,74.12,188.24,115.67,190.51,494.42,Single-ply,SBD,M
Boys,74.84,3,Marc Pickett,Kyle Lehman,72.76,165.56,117.93,195.04,478.54,Single-ply,SBD,M
Boys,74.84,4,Nieves Garcia,Kyle Lehman,72.76,156.49,124.74,195.04,476.27,Single-ply,SBD,M
Boys,74.84,5,Stefen Villanueva,Floresville,74.34,170.1,102.06,199.58,471.74,Single-ply,SBD,M
Boys,82.1,6,Paul Almendarez,Three Rivers,74.89,174.63,86.18,195.04,455.86,Single-ply,SBD,M
Boys,74.84,7,Aaron Davalos,San Antonio Kennedy,69.94,122.47,104.33,181.44,408.23,Single-ply,SBD,M
Boys,74.84,8,Tim Mendoza,San Marcos,72.48,106.59,65.77,127.01,299.37,Single-ply,SBD,M
Boys,74.84,9,Jose Garcia #15,Comfort,69.9,113.4,,,113.4,Single-ply,S,M
Boys,74.84,DQ,Andy Joslin,Floresville,70.26,,,,,Single-ply,S,M
Boys,74.84,DQ,Scott Gonzales,Floresville,70.58,195.04,115.67,,,Single-ply,SB,M
Boys,82.1,1,Cj Felux,Floresville,78.97,201.85,117.93,235.87,555.65,Single-ply,SBD,M
Boys,82.1,2,Jeremy Holloway,Kyle Lehman,81.6,181.44,127.01,242.67,551.11,Single-ply,SBD,M
Boys,82.1,3,Gilbert Aguirre,Three Rivers,80.92,190.51,113.4,158.76,462.66,Single-ply,SBD,M
Boys,82.1,4,Eutiquio Mondragon,Kyle Lehman,78.38,151.95,127.01,161.03,439.98,Single-ply,SBD,M
Boys,82.1,5,Caleb Lozano,Comfort,76.16,147.42,88.45,181.44,417.3,Single-ply,SBD,M
Boys,82.1,6,Rene Velasquez,San Marcos,77.34,131.54,86.18,127.01,344.73,Single-ply,SBD,M
Boys,82.1,7,Gavin Hernandez,San Marcos,81.37,111.13,83.91,129.27,324.32,Single-ply,SBD,M
Boys,82.1,DQ,Landon Ventura,Bandera,77.29,,,,,Single-ply,SBD,M
Boys,82.1,DQ,Dustin Del Toro,Cotulla,79.65,195.04,117.93,,,Single-ply,SBD,M
Boys,89.81,1,Demetri Molina,Somerset,86.09,215.46,129.27,208.65,553.38,Single-ply,SBD,M
Boys,89.81,2,Jacob Lopez,San Antonio Brooks Academy,87,204.12,127.01,199.58,530.7,Single-ply,SBD,M
Boys,89.81,3,John Valdez,Somerset,82.87,204.12,136.08,183.7,523.9,Single-ply,SBD,M
Boys,89.81,4,Rudy Pena,San Antonio Kennedy,84.55,192.78,104.33,224.53,521.63,Single-ply,SBD,M
Boys,89.81,5,Joshia Ramirez,Floresville,87.54,170.1,113.4,183.7,467.2,Single-ply,SBD,M
Boys,89.81,6,George Bruce,Del Rio,85.05,161.03,111.13,172.37,444.52,Single-ply,SBD,M
Boys,89.81,7,Jesse Ramirez #3,Floresville,84.14,172.37,83.91,183.7,439.98,Single-ply,SBD,M
Boys,89.81,8,Dejohn Reeves,Kyle Lehman,87.77,124.74,83.91,192.78,401.43,Single-ply,SBD,M
Boys,99.79,9,Ramsey Tijerina,San Marcos,89.95,142.88,83.91,163.29,390.09,Single-ply,SBD,M
Boys,89.81,10,Jose Hernandez #5,San Marcos,87.54,149.69,90.72,147.42,387.82,Single-ply,SBD,M
Boys,89.81,DQ,Thomas Duran,San Antonio Brooks Academy,89.27,183.7,,,,Single-ply,SBD,M
Boys,99.79,1,Robert Hinojosa,San Antonio Kennedy,97.89,195.04,83.91,206.38,485.34,Single-ply,SBD,M
Boys,99.79,2,Daniel Perez,Kyle Lehman,95.53,165.56,115.67,183.7,464.93,Single-ply,SBD,M
Boys,99.79,3,Bryan Speilman,Del Rio,94.35,158.76,102.06,183.7,444.52,Single-ply,SBD,M
Boys,99.79,4,Cesar Urbano,Del Rio,93.49,138.35,95.25,136.08,369.68,Single-ply,SBD,M
Boys,99.79,5,Jose Tabullo,Comfort,97.34,124.74,106.59,124.74,356.07,Single-ply,SBD,M
Boys,99.79,6,Jorge Riojas,San Marcos,92.44,113.4,83.91,136.08,333.39,Single-ply,SBD,M
Boys,99.79,DQ,Joey Sanchez,Somerset,90.85,174.63,,,,Single-ply,SBD,M
Boys,109.77,1,Kyle Wilson,Bandera,108.09,222.26,142.88,224.53,589.67,Single-ply,SBD,M
Boys,109.77,2,Cory Opiela,Floresville,106.96,215.46,129.27,224.53,569.26,Single-ply,SBD,M
Boys,109.77,3,Martin Galvan,San Antonio Kennedy,108.45,188.24,142.88,195.04,526.17,Single-ply,SBD,M
Boys,109.77,4,Paul Esparza,San Antonio Brooks Academy,106.19,192.78,113.4,208.65,514.83,Single-ply,SBD,M
Boys,109.77,5,Miguel Hernandez,Comfort,100.2,145.15,95.25,181.44,421.84,Single-ply,SBD,M
Boys,109.77,DQ,Armando Veliz,Del Rio,103.78,167.83,81.65,,,Single-ply,SBD,M
Boys,124.74,1,Bryce Dowda,Bandera,122.29,244.94,147.42,231.33,623.69,Single-ply,SBD,M
Boys,124.74,2,Marcus Ruiz,Kyle Lehman,120.56,219.99,136.08,195.04,551.11,Single-ply,SBD,M
Boys,124.74,3,Joseph Garcia,Del Rio,123.29,190.51,122.47,224.53,537.51,Single-ply,SBD,M
Boys,124.74,4,AJ Bosquez,San Marcos,120.52,147.42,79.38,149.69,376.48,Single-ply,SBD,M
Boys,124.74,DQ,Bj Frieda,Somerset,116.94,,,,,Single-ply,SBD,M
Boys,124.74,DQ,Manuel Macias,Floresville,112.22,256.28,,,,Single-ply,SBD,M
Boys,124.74,DQ,Brandon Williams #1,Del Rio,119.11,185.97,,,,Single-ply,SBD,M
Boys,124.74,DQ,Jacob Ybarra,Somerset,110.72,,,,,Single-ply,SBD,M
Boys,124.74+,1,Ben Hartman,Del Rio,134.54,233.6,167.83,272.16,673.58,Single-ply,SBD,M
Boys,124.74+,2,Andrew Bachman,Bandera,132.9,219.99,156.49,199.58,576.06,Single-ply,SBD,M
Boys,124.74+,3,Mike Romero,Somerset,148.1,192.78,154.22,174.63,521.63,Single-ply,SBD,M
Boys,124.74+,4,Zac Moore,Comfort,150.18,204.12,108.86,192.78,505.76,Single-ply,SBD,M
Boys,124.74+,5,Chris Cobb,Somerset,136.49,183.7,102.06,158.76,444.52,Single-ply,SBD,M
Boys,124.74+,6,Jesse Martinez,San Antonio Kennedy,157.26,167.83,95.25,158.76,421.84,Single-ply,SBD,M
Boys,124.74+,7,Nick Dela Rosa,San Marcos,130.09,138.35,74.84,142.88,356.07,Single-ply,SBD,M
Boys,124.74+,8,Jonathan Turner,Three Rivers,140.93,136.08,72.57,147.42,356.07,Single-ply,SBD,M
Boys,124.74+,DQ,Joe Reschmann,Somerset,129.46,,,,,Single-ply,SBD,M
Boys,124.74+,DQ,Chris Frank,Del Rio,148.28,,,,,Single-ply,SBD,M
Boys,124.74+,DQ,Julian Silguero,Kyle Lehman,139.8,249.48,151.95,,,Single-ply,SBD,M
Boys,124.74+,DQ,Daniel Ramirez,Somerset,129.95,238.14,,,,Single-ply,SBD,M
