Division,WeightClassKg,Place,Name,Team,BodyweightKg,Best3SquatKg,Best3BenchKg,Best3DeadliftKg,TotalKg,Equipment,Event,Sex
Boys,51.71,1,Taskin Amin,Midland Lee,49.8,122.47,63.5,145.15,331.12,Single-ply,SBD,M
Boys,51.71,2,Chris Rodriguez,Iraan,49.8,117.93,81.65,129.27,328.85,Single-ply,SBD,M
Boys,51.71,3,Darian Vidana,Monahans,49.62,113.4,52.16,111.13,276.69,Single-ply,SBD,M
Boys,55.79,4,Israel Celaya,Fort Stockton,51.94,90.72,52.16,106.59,249.48,Single-ply,SBD,M
Boys,51.71,5,Colten Neuman,McCamey,50.8,83.91,38.56,90.72,213.19,Single-ply,SBD,M
Boys,51.71,DQ,Pete Ballez,Midland,51.71,,,,,Single-ply,SBD,M
Boys,55.79,1,Evan Valenzuela,Midland,54.16,142.88,81.65,156.49,381.02,Single-ply,SBD,M
Boys,59.87,2,Martin Hernandez #3,Andrews,55.97,136.08,77.11,136.08,349.27,Single-ply,SBD,M
Boys,55.79,3,Zack Rayos,Pecos,52.8,136.08,74.84,133.81,344.73,Single-ply,SBD,M
Boys,55.79,4,Nicholas Ybarra,Pecos,55.61,129.27,70.31,129.27,328.85,Single-ply,SBD,M
Boys,55.79,5,Michael Suniga,Midland Lee,52.62,111.13,61.23,129.27,301.64,Single-ply,SBD,M
Boys,55.79,6,Justin Workman,Pecos,53.8,104.33,63.5,122.47,290.3,Single-ply,SBD,M
Boys,55.79,7,Jonathon Courville,Andrews,55.25,95.25,68.04,124.74,288.03,Single-ply,SBD,M
Boys,55.79,8,Ernest Villanueva,Fort Stockton,55.7,102.06,54.43,111.13,267.62,Single-ply,SBD,M
Boys,59.87,9,Avan Feyry,Fort Stockton,56.02,90.72,45.36,113.4,249.48,Single-ply,SBD,M
Boys,55.79,DQ,Jimmy Miller,Alpine,55.79,117.93,,,,Single-ply,SBD,M
Boys,55.79,DQ,Tevin Cordova,Ozona,53.71,88.45,,,,Single-ply,SBD,M
Boys,59.87,1,Miles Ochsner,Midland Lee,58.06,181.44,92.99,181.44,455.86,Single-ply,SBD,M
Boys,59.87,2,Gabriel Chavez,Kermit,59.87,158.76,113.4,167.83,439.98,Single-ply,SBD,M
Boys,59.87,3,Federico Juarez,Andrews,59.33,156.49,92.99,158.76,408.23,Single-ply,SBD,M
Boys,59.87,4,Dario Alvarez,Pecos,59.15,127.01,72.57,138.35,337.93,Single-ply,SBD,M
Boys,67.13,5,German Rodriguez,Monahans,60.06,127.01,72.57,133.81,333.39,Single-ply,SBD,M
Boys,67.13,6,Dallas Bowden,Monahans,60.06,120.2,70.31,129.27,319.78,Single-ply,SBD,M
Boys,59.87,7,Edward Lumbreras,Fort Stockton,59.87,108.86,77.11,129.27,315.25,Single-ply,SBD,M
Boys,67.13,1,Stephen Apolinar,Pecos,66.22,197.31,120.2,174.63,492.15,Single-ply,SBD,M
Boys,67.13,2,John Ripley,Fort Stockton,67.13,172.37,104.33,161.03,437.72,Single-ply,SBD,M
Boys,67.13,3,Josh Foster,Midland Lee,64.59,154.22,81.65,181.44,417.3,Single-ply,SBD,M
Boys,67.13,4,Cesar Chavez,Midland,67.13,156.49,81.65,179.17,417.3,Single-ply,SBD,M
Boys,67.13,5,Larry Polanco,Andrews,66.41,145.15,88.45,181.44,415.04,Single-ply,SBD,M
Boys,67.13,6,Rafael Robles,Andrews,67.04,151.95,102.06,156.49,410.5,Single-ply,SBD,M
Boys,74.84,7,Daniel Perez,McCamey,67.22,151.95,83.91,161.03,396.89,Single-ply,SBD,M
Boys,67.13,8,Jaime Ortiz,Crane,62.32,145.15,99.79,145.15,390.09,Single-ply,SBD,M
Boys,67.13,9,Nick Medina,Pecos,63.68,165.56,86.18,138.35,390.09,Single-ply,SBD,M
Boys,67.13,10,Matt Gonzales,Fort Stockton,62.19,142.88,81.65,151.95,376.48,Single-ply,SBD,M
Boys,67.13,11,Albert Garcia,Fort Stockton,61.28,138.35,79.38,147.42,365.14,Single-ply,SBD,M
Boys,67.13,12,Shane Trogden,Odessa Permian,65.5,131.54,81.65,145.15,358.34,Single-ply,SBD,M
Boys,67.13,13,Cody Huelsberg,Alpine,66.68,127.01,81.65,140.61,349.27,Single-ply,SBD,M
Boys,74.84,14,Nathan Montes,Monahans,67.31,127.01,77.11,136.08,340.19,Single-ply,SBD,M
Boys,67.13,15,Faustino Rosas,Fort Stockton,62.6,124.74,61.23,142.88,328.85,Single-ply,SBD,M
Boys,67.13,16,Timothy Stark,Big Lake Reagan County,62.69,117.93,65.77,129.27,312.98,Single-ply,SBD,M
Boys,67.13,17,Bryce Bender,Midland,64.5,111.13,56.7,136.08,303.91,Single-ply,SBD,M
Boys,67.13,18,Rj Gonzales,Andrews,62.78,106.59,70.31,120.2,297.1,Single-ply,SBD,M
Boys,67.13,19,David Garcia #21,Kermit,65.23,102.06,63.5,113.4,278.96,Single-ply,SBD,M
Boys,67.13,20,David Bislar,Fort Stockton,65.68,90.72,61.23,113.4,265.35,Single-ply,SBD,M
Boys,67.13,21,John David Crenshaw,Andrews,61.87,88.45,63.5,108.86,260.82,Single-ply,SBD,M
Boys,67.13,DQ,Andrew Ramos,Balmorhea,66.41,,,,,Single-ply,SBD,M
Boys,67.13,DQ,Ben Rodriguez,Fort Stockton,64.86,102.06,,,,Single-ply,SBD,M
Boys,67.13,DQ,Austin Hall,Odessa Permian,61.87,,,,,Single-ply,SBD,M
Boys,74.84,1,Mark Kollar,Midland Lee,74.3,204.12,120.2,204.12,528.44,Single-ply,SBD,M
Boys,74.84,2,Lomas Gonzales,Pecos,73.3,206.38,113.4,172.37,492.15,Single-ply,SBD,M
Boys,74.84,3,Kyle Dean,Ozona,68.76,188.24,108.86,172.37,469.47,Single-ply,SBD,M
Boys,74.84,4,Blaze Wooten,Midland,74.48,179.17,106.59,183.7,469.47,Single-ply,SBD,M
Boys,74.84,5,Donovan Rodriguez,Pecos,74.57,172.37,108.86,181.44,462.66,Single-ply,SBD,M
Boys,74.84,6,Cody Cagle,Iraan,74.66,163.29,113.4,176.9,453.59,Single-ply,SBD,M
Boys,82.1,7,Richie Gonzales,Odessa Permian,75.02,151.95,113.4,174.63,439.98,Single-ply,SBD,M
Boys,74.84,8,David Pineda,McCamey,69.76,170.1,97.52,170.1,437.72,Single-ply,SBD,M
Boys,74.84,9,Bubba Boyett,Monahans,72.85,172.37,92.99,172.37,437.72,Single-ply,SBD,M
Boys,82.1,10,Josh Tarin,Odessa Permian,74.93,165.56,108.86,151.95,426.38,Single-ply,SBD,M
Boys,82.1,11,Marc Zarate,Andrews,75.02,161.03,102.06,163.29,426.38,Single-ply,SBD,M
Boys,74.84,12,Jesus Ramirez,Midland,73.03,158.76,102.06,163.29,424.11,Single-ply,SBD,M
Boys,74.84,13,Jonathan Dominguez,McCamey,69.31,163.29,95.25,149.69,408.23,Single-ply,SBD,M
Boys,74.84,14,Victor Flores,Monahans,74.75,145.15,99.79,156.49,401.43,Single-ply,SBD,M
Boys,74.84,15,Justin Rodriguez,McCamey,67.49,142.88,97.52,149.69,390.09,Single-ply,SBD,M
Boys,82.1,16,Joedward Gomez,Pecos,74.93,142.88,83.91,154.22,381.02,Single-ply,SBD,M
Boys,74.84,17,Anthony Montes,Monahans,73.3,127.01,86.18,140.61,353.8,Single-ply,SBD,M
Boys,74.84,18,Bean Yarman,Midland,68.22,102.06,70.31,147.42,319.78,Single-ply,SBD,M
Boys,74.84,19,Adrian Flores,Monahans,70.85,124.74,77.11,108.86,310.71,Single-ply,SBD,M
Boys,74.84,20,Tyler Davis,Pecos,69.58,104.33,77.11,117.93,299.37,Single-ply,SBD,M
Boys,74.84,21,Larry Sparkman,Pecos,71.03,111.13,83.91,99.79,294.84,Single-ply,SBD,M
Boys,74.84,22,Jalen Falcon,Fort Stockton,72.67,102.06,56.7,113.4,272.16,Single-ply,SBD,M
Boys,74.84,23,Noah Tambunga,Ozona,68.58,92.99,61.23,106.59,260.82,Single-ply,SBD,M
Boys,74.84,DQ,Austin Pradon,Odessa Permian,73.84,,,,,Single-ply,SBD,M
Boys,74.84,DQ,Casey Blake,Midland,72.94,142.88,,,,Single-ply,SBD,M
Boys,74.84,DQ,Marcos Beltran,Balmorhea,73.48,102.06,70.31,,,Single-ply,SBD,M
Boys,82.1,1,Efrain Vasquez,Midland,80.74,208.65,115.67,204.12,528.44,Single-ply,SBD,M
Boys,82.1,2,Baxter Pilley,Fort Stockton,81.28,183.7,124.74,192.78,501.22,Single-ply,SBD,M
Boys,82.1,3,Jaqualen Briscoe,Midland Lee,80.56,172.37,81.65,204.12,458.13,Single-ply,SBD,M
Boys,82.1,4,Jacob Cabos,Odessa Permian,80.2,185.97,83.91,176.9,446.79,Single-ply,SBD,M
Boys,82.1,5,Luis Juarez,Midland,77.11,170.1,92.99,181.44,444.52,Single-ply,SBD,M
Boys,82.1,6,Ozzy Zuniga,Odessa Permian,77.75,174.63,102.06,158.76,435.45,Single-ply,SBD,M
Boys,82.1,7,Rey Villalpando,Big Lake Reagan County,81.56,170.1,83.91,172.37,426.38,Single-ply,SBD,M
Boys,82.1,8,Craig Wesson,Odessa Permian,79.2,145.15,92.99,185.97,424.11,Single-ply,SBD,M
Boys,82.1,9,Mark Marquez,Midland Lee,75.66,154.22,90.72,170.1,415.04,Single-ply,SBD,M
Boys,82.1,10,Justin Thorton,Pecos,75.75,142.88,88.45,167.83,399.16,Single-ply,SBD,M
Boys,89.81,11,Carlos Gomez,Iraan,82.19,142.88,102.06,151.95,396.89,Single-ply,SBD,M
Boys,82.1,12,Floyd Emery,Crane,79.02,145.15,95.25,151.95,392.36,Single-ply,SBD,M
Boys,82.1,13,AJ Sanchez,Monahans,76.02,131.54,77.11,140.61,349.27,Single-ply,SBD,M
Boys,82.1,14,Hector Ontiveros,Fort Stockton,78.38,113.4,83.91,136.08,333.39,Single-ply,SBD,M
Boys,82.1,15,Alejandro Méndez,Ozona,79.65,115.67,86.18,127.01,328.85,Single-ply,SBD,M
Boys,82.1,16,Kedrick McGrew,McCamey,75.75,106.59,83.91,136.08,326.59,Single-ply,SBD,M
Boys,82.1,17,Josh Martinez,Ozona,77.93,83.91,74.84,127.01,285.76,Single-ply,SBD,M
Boys,82.1,18,Leon Thompson,Monahans,79.38,99.79,61.23,117.93,278.96,Single-ply,SBD,M
Boys,89.81,DQ,Marquise Clater,Midland,82.28,,,,,Single-ply,SBD,M
Boys,82.1,DQ,Justin Bills,Andrews,77.47,142.88,77.11,,,Single-ply,SBD,M
Boys,89.81,1,Abner Godoy,Midland,89.81,229.06,142.88,219.99,591.94,Single-ply,SBD,M
Boys,89.81,2,Jd Tankersley,Iraan,87.82,204.12,129.27,217.72,551.11,Single-ply,SBD,M
Boys,89.81,3,Jake Varela,Pecos,88.81,204.12,133.81,208.65,546.58,Single-ply,SBD,M
Boys,89.81,4,Robert Herrera,Pecos,89.81,181.44,129.27,176.9,487.61,Single-ply,SBD,M
Boys,89.81,5,Josh Blancas,Midland Lee,86,158.76,113.4,181.44,453.59,Single-ply,SBD,M
Boys,89.81,6,Dillon Caylor,Midland Lee,86.09,174.63,90.72,185.97,451.32,Single-ply,SBD,M
Boys,89.81,7,Junior Gomez,Odessa Permian,87,170.1,102.06,179.17,451.32,Single-ply,SBD,M
Boys,89.81,8,Miguel López,Big Lake Reagan County,83.64,163.29,92.99,188.24,444.52,Single-ply,SBD,M
Boys,89.81,9,Andrew Gaona,Monahans,83.82,172.37,99.79,154.22,426.38,Single-ply,SBD,M
Boys,89.81,10,Cameron Yazdani,Midland Lee,86.27,161.03,79.38,167.83,408.23,Single-ply,SBD,M
Boys,99.79,11,Jesse Barrios,Fort Stockton,89.99,136.08,90.72,158.76,385.55,Single-ply,SBD,M
Boys,89.81,12,Garrett Ford,Monahans,85.18,127.01,83.91,131.54,342.46,Single-ply,SBD,M
Boys,89.81,DQ,Parker May,Monahans,87.45,61.23,,,,Single-ply,SBD,M
Boys,89.81,DQ,Rooney Johnson,Odessa Permian,89.36,,,,,Single-ply,SBD,M
Boys,89.81,DQ,Brandon Dominguez,Ozona,83.1,,,,,Single-ply,SBD,M
Boys,99.79,DQ,Ramiro Pinales,Pecos,89.99,,,,,Single-ply,SBD,M
Boys,99.79,1,Enrique Sotelo,Pecos,97.34,226.8,145.15,213.19,585.13,Single-ply,SBD,M
Boys,99.79,2,Brandon Sanchez,Fort Stockton,92.08,215.46,122.47,226.8,564.72,Single-ply,SBD,M
Boys,109.77,3,Micheal Molina,McCamey,99.88,217.72,131.54,185.97,535.24,Single-ply,SBD,M
Boys,99.79,4,Rudy Lopez,Midland Lee,91.99,199.58,111.13,219.99,530.7,Single-ply,SBD,M
Boys,99.79,5,Ron Holmes,Odessa Permian,96.98,222.26,113.4,192.78,528.44,Single-ply,SBD,M
Boys,99.79,6,Shaquille Johnson,Odessa Permian,98.61,226.8,117.93,179.17,523.9,Single-ply,SBD,M
Boys,99.79,7,Danny Dillman,Midland,92.99,183.7,122.47,208.65,514.83,Single-ply,SBD,M
Boys,99.79,8,Hasten Wood,Odessa Permian,99.34,204.12,113.4,195.04,512.56,Single-ply,SBD,M
Boys,109.77,9,Angel Martinez #8,Fort Stockton,99.97,197.31,122.47,181.44,501.22,Single-ply,SBD,M
Boys,99.79,10,Ibraham Carrasco,Andrews,97.79,204.12,115.67,170.1,489.88,Single-ply,SBD,M
Boys,99.79,11,Anthony Gonzales,Ozona,92.71,195.04,113.4,158.76,467.2,Single-ply,SBD,M
Boys,99.79,12,Justin Ornelas,Crane,91.35,172.37,113.4,176.9,462.66,Single-ply,SBD,M
Boys,99.79,13,Emmanuel Rodriguez,Crane,98.43,170.1,113.4,170.1,453.59,Single-ply,SBD,M
Boys,99.79,14,Lawdon Weeoen,Odessa Permian,98.43,163.29,97.52,183.7,444.52,Single-ply,SBD,M
Boys,99.79,15,Ryan Bagley #1,Andrews,97.61,158.76,88.45,161.03,408.23,Single-ply,SBD,M
Boys,99.79,16,Christian Lacatour,Odessa Permian,97.79,149.69,92.99,165.56,408.23,Single-ply,SBD,M
Boys,99.79,17,Michael Medina #2,Ozona,95.89,158.76,108.86,138.35,405.97,Single-ply,SBD,M
Boys,99.79,18,Cagen Chaney,Iraan,92.9,138.35,92.99,151.95,383.29,Single-ply,SBD,M
Boys,99.79,19,Jacob Anderson,Crane,90.45,131.54,90.72,142.88,365.14,Single-ply,SBD,M
Boys,99.79,20,Chance Arriaga,Fort Stockton,96.98,124.74,83.91,147.42,356.07,Single-ply,SBD,M
Boys,99.79,DQ,Anthony Avila,Ozona,97.16,,,,,Single-ply,SBD,M
Boys,99.79,DQ,Alex Montano,Pecos,96.89,,,,,Single-ply,SBD,M
Boys,109.77,1,Henry Hoang,Midland,105.14,260.82,151.95,242.67,655.44,Single-ply,SBD,M
Boys,109.77,2,Damon Rose,Odessa Permian,107.86,199.58,131.54,213.19,544.31,Single-ply,SBD,M
Boys,124.74,3,Anthony Ford,Monahans,109.95,206.38,133.81,204.12,544.31,Single-ply,SBD,M
Boys,109.77,4,Gerardo Hernandez,Crane,109.04,217.72,111.13,197.31,526.17,Single-ply,SBD,M
Boys,109.77,5,Michael Motley,Midland Lee,108.14,195.04,113.4,213.19,521.63,Single-ply,SBD,M
Boys,109.77,6,Jordan Falcon,Fort Stockton,104.51,195.04,108.86,188.24,492.15,Single-ply,SBD,M
Boys,109.77,7,Dutton Watson,Midland,107.23,176.9,108.86,206.38,492.15,Single-ply,SBD,M
Boys,109.77,8,Isacc Dearing,Midland,101.33,172.37,108.86,208.65,489.88,Single-ply,SBD,M
Boys,109.77,9,Keith Kalka,Fort Stockton,104.6,161.03,99.79,158.76,419.57,Single-ply,SBD,M
Boys,109.77,10,Lionel Sanchez,Midland,101.06,149.69,92.99,163.29,405.97,Single-ply,SBD,M
Boys,109.77,11,John Cook,McCamey,109.77,129.27,74.84,129.27,333.39,Single-ply,SBD,M
Boys,109.77,12,Christopher Ramirez,McCamey,106.78,115.67,61.23,124.74,301.64,Single-ply,SBD,M
Boys,109.77,13,Hector Sanchez,Big Lake Reagan County,106.23,106.59,56.7,129.27,292.57,Single-ply,SBD,M
Boys,109.77,DQ,Ruben Ochoa,Odessa Permian,107.23,217.72,,,,Single-ply,SBD,M
Boys,124.74,1,Irvin Sanchez,Andrews,117.84,272.16,158.76,215.46,646.37,Single-ply,SBD,M
Boys,124.74,2,Tyler Tatum,Midland,114.67,233.6,129.27,226.8,589.67,Single-ply,SBD,M
Boys,124.74,3,Miguel Chavez,Iraan,119.75,238.14,142.88,197.31,578.33,Single-ply,SBD,M
Boys,124.74,4,Curtis Hubert,Andrews,118.39,238.14,136.08,199.58,573.79,Single-ply,SBD,M
Boys,124.74,5,Jesse Baeza,Odessa Permian,112.13,206.38,113.4,204.12,523.9,Single-ply,SBD,M
Boys,124.74,6,Avery Rodriguez #4,Odessa Permian,116.75,213.19,115.67,190.51,519.36,Single-ply,SBD,M
Boys,124.74,7,Andrew Rawling,Monahans,115.76,204.12,102.06,195.04,501.22,Single-ply,SBD,M
Boys,124.74,8,Cody Erickson,Odessa Permian,122.11,208.65,102.06,183.7,494.42,Single-ply,SBD,M
Boys,124.74,9,Arzel Alvarado,Kermit,118.66,204.12,92.99,156.49,453.59,Single-ply,SBD,M
Boys,124.74,10,Alex Gonzales #3,Odessa Permian,111.58,172.37,113.4,165.56,451.32,Single-ply,SBD,M
Boys,124.74,11,Cullen Carruth,Andrews,115.67,165.56,95.25,165.56,426.38,Single-ply,SBD,M
Boys,124.74,12,Isiaih Del Bosque,Iraan,113.76,167.83,92.99,163.29,424.11,Single-ply,SBD,M
Boys,124.74,13,Ryan Leyba,Midland,116.3,154.22,88.45,170.1,412.77,Single-ply,SBD,M
Boys,124.74,14,Joe Borrego,Ozona,111.4,131.54,83.91,158.76,374.21,Single-ply,SBD,M
Boys,124.74,DQ,Matt Orneals,Monahans,112.58,247.21,,,,Single-ply,SBD,M
Boys,124.74+,1,Daniel Viasana,Midland Lee,144.06,217.72,163.29,226.8,607.81,Single-ply,SBD,M
Boys,124.74+,2,Malachi Nichols,Midland,134.44,217.72,145.15,231.33,594.21,Single-ply,SBD,M
Boys,124.74+,3,Louis Rodriguez,Pecos,127.82,226.8,111.13,247.21,585.13,Single-ply,SBD,M
Boys,124.74+,4,Aaron Voss,Odessa Permian,133.81,238.14,129.27,215.46,582.87,Single-ply,SBD,M
Boys,124.74+,5,Hippo Brito,Fort Stockton,135.81,249.48,115.67,213.19,578.33,Single-ply,SBD,M
Boys,124.74+,6,Cristian Venegas,Crane,135.26,240.4,133.81,201.85,576.06,Single-ply,SBD,M
Boys,124.74+,7,Zach Byars,Midland,149.41,195.04,113.4,204.12,512.56,Single-ply,SBD,M
Boys,124.74+,8,Tyler Ramos,Pecos,140.7,222.26,95.25,185.97,503.49,Single-ply,SBD,M
Boys,124.74+,9,James Penman,Andrews,157.4,238.14,88.45,156.49,483.08,Single-ply,SBD,M
Boys,124.74+,10,Ross Phipps,Monahans,129.55,104.33,61.23,136.08,301.64,Single-ply,SBD,M
Boys,124.74+,DQ,Joseph Sanchez,Fort Stockton,139.07,158.76,99.79,,,Single-ply,SBD,M
