Name,Equipment,Sex,BirthDate,BodyweightKg,Age,Division,WeightClassKg,Squat1Kg,Squat2Kg,Squat3Kg,Best3SquatKg,Squat4Kg,Bench1Kg,Bench2Kg,Bench3Kg,Best3BenchKg,Bench4Kg,Deadlift1Kg,Deadlift2Kg,Deadlift3Kg,Best3DeadliftKg,Deadlift4Kg,TotalKg,Event,Place
Milena Heredia,Wraps,F,1993-04-28,48,27,Open,48,62.5,67.5,72.5,72.5,,40,42.5,47.5,47.5,,110,117.5,125,125,,245,SBD,1
Marta Vega,Wraps,F,1981-07-09,65.8,39,Open,67.5,110,120,130,130,,55,60,65,65,,110,120,130,130,,325,SBD,1
Maria Eugenia Bertorello,Wraps,F,1989-10-19,69.7,31,Open,75,-125,-125,125,125,,-55,55,-60,55,,-140,140,150,150,,330,SBD,1
Lautarto Allassia,Wraps,M,1997-09-16,73.9,23,Open,75,-195,200,205,205,,107.5,-115,-115,107.5,,190,205,212.5,212.5,,525,SBD,2
Federico Quiñonez,Wraps,M,2000-04-10,80,20,Open,82.5,215,-230,230,230,,-80,90,100,100,,210,225,235,235,,565,SBD,1
Matias Vasquez,Wraps,M,2001-07-02,81.4,19,Open,82.5,100,110,,110,,100,110,-120,110,,160,170,-180,170,,390,SBD,2
Lautarto Allassia,Wraps,M,1997-09-16,73.9,23,Jun,75,-195,200,205,205,,107.5,-115,-115,107.5,,190,205,212.5,212.5,,525,SBD,1
Federico Quiñonez,Wraps,M,2000-04-10,80,20,Jun,82.5,215,-230,230,230,,-80,90,100,100,,210,225,235,235,,565,SBD,1
Matias Vasquez,Wraps,M,2001-07-02,81.4,19,Tn 18-19,82.5,100,110,,110,,100,110,-120,110,,160,170,-180,170,,390,SBD,1
Leonardo Rosato,Wraps,M,1985-12-27,73.1,35,Open,75,175,185,195,195,,107.5,-120,120,120,,190,205,210,210,,525,SBD,1
Sergio Iglesias,Wraps,M,1986-05-22,95.9,34,Open,100,220,230,240,240,,120,130,-140,130,,230,240,-250,240,,610,SBD,1
Hernan D. Concilo,Wraps,M,1981-06-29,99.5,39,Open,100,180,-195,205,205,,120,130,-135,130,,200,215,230,230,,565,SBD,2
Julio Travaglia,Wraps,M,1980-09-21,89.5,40,Open,90,200,220,230,230,,122.5,132.5,142.5,142.5,,210,225,240,240,,612.5,SBD,1
Sergio Kimmel,Wraps,M,1979-01-02,88.5,42,Open,90,-200,-220,220,220,,110,120,130,130,,220,-240,,220,,570,SBD,2
Juan Ales,Wraps,M,1957-03-09,84.2,64,Open,90,150,-160,170,170,,100,-110,120,120,,155,165,175,175,,465,SBD,3
German Ciacia,Wraps,M,1972-09-07,102,48,Open,110,65,,,65,,100,110,-115,110,,70,,,70,,245,SBD,2
Julio Travaglia,Wraps,M,1980-09-21,89.5,40,M 40-49,90,200,220,230,230,,122.5,132.5,142.5,142.5,,210,225,240,240,,612.5,SBD,1
Sergio Kimmel,Wraps,M,1979-01-02,88.5,42,M 40-49,90,-200,-220,220,220,,110,120,130,130,,220,-240,,220,,570,SBD,2
Juan Ales,Wraps,M,1957-03-09,84.2,64,M 60-69,90,150,-160,170,170,,100,-110,120,120,,155,165,175,175,,465,SBD,1
German Ciacia,Wraps,M,1972-09-07,102,48,M 40-49,110,65,,,65,,100,110,-115,110,,70,,,70,,245,SBD,1
Facundo Soria,Wraps,M,1991-03-09,108.3,30,Open,110,260,-270,,260,,180,187.5,192.5,192.5,,270,285,-292.5,285,,737.5,SBD,1
Juan Manavella,Wraps,M,1977-01-01,111,44,Open,125,240,255,265,265,,100,,,100,,240,275,,275,,640,SBD,1
Leonardo Cavaglia,Wraps,M,1976-01-12,127,45,Open,140,275,290,,290,,170,177.5,185,185,,265,,,265,,740,SBD,1
Carlos Porta,Raw,M,1933-02-03,79.8,88,Open,82.5,,,,,,65,70,-72.5,70,,,,,,,70,B,1
Lucas Basualdo,Raw,M,1981-02-20,95,40,Open,100,,,,,,100,102.5,105,105,,,,,,,105,B,1
Javier Jimenez,Raw,M,1970-06-20,96,50,Open,100,,,,,,-85,85,95,95,,,,,,,95,B,2
Daniel Acuña,Raw,M,2004-05-06,120,16,Open,125,,,,,,90,100,110,110,,,,,,,110,B,1
Maria Belen Di Nali,Raw,F,1999-04-23,53.3,21,Open,56,,,,,,47.5,50,-55,50,,105,-115,120,120,-125,170,BD,1
Juan Manavella,Wraps,M,1977-01-01,111,44,M 40-49,125,240,255,265,265,,100,,,100,,240,275,,275,,640,SBD,1
Leonardo Cavaglia,Wraps,M,1976-01-12,127,45,M 40-49,140,275,290,,290,,170,177.5,185,185,,265,,,265,,740,SBD,1
Carlos Porta,Raw,M,1933-02-03,79.8,88,M 80+,82.5,,,,,,65,70,-72.5,70,,,,,,,70,B,1
Lucas Basualdo,Raw,M,1981-02-20,95,40,M 40-49,100,,,,,,100,102.5,105,105,,,,,,,105,B,1
Javier Jimenez,Raw,M,1970-06-20,96,50,M 50-59,100,,,,,,-85,85,95,95,,,,,,,95,B,1
Daniel Acuña,Raw,M,2004-05-06,120,16,Tn 16-17,125,,,,,,90,100,110,110,,,,,,,110,B,1
Maria Belen Di Nali,Raw,F,1999-04-23,53.3,21,Jun,56,,,,,,47.5,50,-55,50,,105,-115,120,120,-125,170,BD,1
Fabian Rivero,Raw,M,1990-07-29,80.8,30,Open,82.5,,,,,,125,135,140,140,,220,240.5,250,250,,390,BD,1
Andrés Elvira,Raw,M,1979-04-25,74,41,Open,75,,,,,,102.5,112.5,117.5,117.5,,170,185,-192.5,185,,302.5,BD,1
Andrés Elvira,Raw,M,1979-04-25,74,41,M 40-49,75,,,,,,102.5,112.5,117.5,117.5,,170,185,-192.5,185,,302.5,BD,1
Facundo Olmedo,Raw,M,1995-06-12,98.5,25,Open,100,,,,,,-90,95,110,110,,180,-190,-190,180,,290,BD,2
German Orpianessi,Raw,M,1980-11-11,99,40,Open,100,,,,,,105,115,122.5,122.5,,200,212.5,220,220,,342.5,BD,1
German Orpianessi,Raw,M,1980-11-11,99,40,M 40-49,100,,,,,,105,115,122.5,122.5,,200,212.5,220,220,,342.5,BD,1
Jonatan Fontana,Raw,M,1992-06-28,107.2,28,Open,110,,,,,,140,152.5,-160,152.5,,250,270,-280.5,270,,422.5,BD,1
Cesar Simioni,Raw,M,1999-10-03,73,21,Jun,75,,,,,,,,,,,160,170,180,180,,180,D,1
Cesar Simioni,Raw,M,1999-10-03,73,21,Open,75,,,,,,,,,,,160,170,180,180,,180,D,1
