Division,WeightClassKg,Place,Name,Team,BodyweightKg,Best3SquatKg,Best3BenchKg,Best3DeadliftKg,TotalKg,Equipment,Event,Sex
Boys,51.71,1,Michael Ramsey,Van Vleck,50.62,142.88,86.18,172.37,401.43,Single-ply,SBD,M
Boys,51.71,2,Jesus Rios,Vanderbilt Industrial,51.26,133.81,95.25,156.49,385.55,Single-ply,SBD,M
Boys,51.71,3,Adam Morton,Louise,50.26,131.54,79.38,156.49,367.41,Single-ply,SBD,M
Boys,51.71,4,Cole Johnson,Colmesneil,51.35,127.01,56.7,127.01,310.71,Single-ply,SBD,M
Boys,51.71,5,Juan Paniagua,Winnie East Chambers,50.71,115.67,56.7,129.27,301.64,Single-ply,SBD,M
Boys,51.71,6,Tristan Stanley,Kountze,48.08,102.06,61.23,113.4,276.69,Single-ply,SBD,M
Boys,51.71,7,Brent Meguess,Winnie East Chambers,48.94,104.33,61.23,106.59,272.16,Single-ply,SBD,M
Boys,51.71,8,Zach Palmer,Van Vleck,50.53,95.25,56.7,106.59,258.55,Single-ply,SBD,M
Boys,51.71,DQ,Isaias Gonzalez,Anahuac,51.26,,,,,Single-ply,SBD,M
Boys,51.71,NS,Bradley McGill,Vanderbilt Industrial,,,,,,Single-ply,SBD,M
Boys,51.71,NS,Ashton Lockhart,Woodville,,,,,,Single-ply,SBD,M
Boys,55.79,1,Trenton Thedford,Vanderbilt Industrial,55.16,161.03,92.99,154.22,408.23,Single-ply,SBD,M
Boys,55.79,2,Colten Smith,Kountze,54.39,136.08,83.91,165.56,385.55,Single-ply,SBD,M
Boys,59.87,3,Hunter Shoppa,East Bernard,55.93,127.01,86.18,151.95,365.14,Single-ply,SBD,M
Boys,59.87,4,Shannon Davis,Kirbyville,55.88,129.27,77.11,154.22,360.61,Single-ply,SBD,M
Boys,55.79,5,Quentin Kahla,Winnie East Chambers,54.93,124.74,83.91,127.01,335.66,Single-ply,SBD,M
Boys,55.79,6,Shawn Glover,Danbury,55.25,113.4,81.65,131.54,326.59,Single-ply,SBD,M
Boys,55.79,7,Anthony Scarborough,Hitchcock,55.16,124.74,61.23,136.08,322.05,Single-ply,SBD,M
Boys,55.79,8,Kayden Kurtz,Vanderbilt Industrial,55.25,113.4,70.31,138.35,322.05,Single-ply,SBD,M
Boys,55.79,NS,Dillon Wakefield,Van Vleck,,,,,,Single-ply,SBD,M
Boys,55.79,DQ,Chris Dickson,East Bernard,55.11,,,,,Single-ply,SBD,M
Boys,59.87,1,Michael Latapie,Palacios,59.19,185.97,131.54,188.24,505.76,Single-ply,SBD,M
Boys,59.87,2,Tj Foley,Edna,58.42,170.1,90.72,174.63,435.45,Single-ply,SBD,M
Boys,59.87,3,Chris Garza #3,Ganado,59.33,163.29,104.33,149.69,417.3,Single-ply,SBD,M
Boys,59.87,4,Rhett Musser,Vanderbilt Industrial,59.15,163.29,81.65,147.42,392.36,Single-ply,SBD,M
Boys,59.87,5,Mason Carmello,Colmesneil,58.79,131.54,95.25,158.76,385.55,Single-ply,SBD,M
Boys,59.87,6,Jesse Flores,Winnie East Chambers,59.65,151.95,83.91,140.61,376.48,Single-ply,SBD,M
Boys,59.87,7,Daniel Santillan,Vanderbilt Industrial,59.65,151.95,72.57,140.61,365.14,Single-ply,SBD,M
Boys,59.87,DQ,Michael Hernandez,East Bernard,58.24,158.76,90.72,,,Single-ply,SBD,M
Boys,59.87,DQ,Gerard Rhodes,Newton,58.79,151.95,,,,Single-ply,SBD,M
Boys,59.87,DQ,Logan Rhame,Anahuac,58.74,,,,,Single-ply,SBD,M
Boys,67.13,1,Jose Jimenez #11,Palacios,66.54,201.85,131.54,208.65,542.04,Single-ply,SBD,M
Boys,67.13,2,Noah Seaman,Palacios,66.68,181.44,102.06,192.78,476.27,Single-ply,SBD,M
Boys,67.13,3,Raylin Davis,Newton,66.45,192.78,97.52,179.17,469.47,Single-ply,SBD,M
Boys,67.13,4,Teran Casey,Van Vleck,66.41,188.24,90.72,172.37,451.32,Single-ply,SBD,M
Boys,67.13,5,Ryan Laqua,Warren,65.45,147.42,113.4,172.37,433.18,Single-ply,SBD,M
Boys,67.13,6,Brandon Miladin,Van Vleck,65.73,158.76,95.25,170.1,424.11,Single-ply,SBD,M
Boys,67.13,7,Bryce Carroll,Warren,66.22,154.22,104.33,161.03,419.57,Single-ply,SBD,M
Boys,67.13,8,Charlie Kappelman,Kountze,65.05,149.69,108.86,156.49,415.04,Single-ply,SBD,M
Boys,67.13,9,Jaron Hanks,Newton,64.91,149.69,90.72,147.42,387.82,Single-ply,SBD,M
Boys,67.13,DQ,Kristian Grifaldo,Edna,64.55,190.51,102.06,,,Single-ply,SBD,M
Boys,74.84,1,Jace Thomas,Newton,73.71,197.31,133.81,244.94,576.06,Single-ply,SBD,M
Boys,74.84,2,Keith Volpitta,Winnie East Chambers,72.8,190.51,124.74,199.58,514.83,Single-ply,SBD,M
Boys,74.84,3,Kayhlib Sarles,High Island,73.66,188.24,124.74,199.58,512.56,Single-ply,SBD,M
Boys,74.84,4,Ta'Von Cantu,Edna,71.85,183.7,92.99,195.04,471.74,Single-ply,SBD,M
Boys,74.84,5,Brycton Hughey,Kirbyville,73.44,167.83,102.06,199.58,469.47,Single-ply,SBD,M
Boys,74.84,6,Marco Chavarria,Vanderbilt Industrial,72.98,174.63,111.13,172.37,458.13,Single-ply,SBD,M
Boys,74.84,7,Isiah Owens,Kountze,70.99,165.56,97.52,181.44,444.52,Single-ply,SBD,M
Boys,74.84,NS,Devan Lee,Winnie East Chambers,,,,,,Single-ply,SBD,M
Boys,74.84,NS,Gabe Valladares,Van Vleck,,,,,,Single-ply,SBD,M
Boys,74.84,DQ,Denzell Banks,Edna,74.12,197.31,106.59,,,Single-ply,SBD,M
Boys,74.84,DQ,Josh George,Hitchcock,73.39,,,,,Single-ply,SBD,M
Boys,82.1,1,Brandon Johnson,Newton,80.97,254.01,142.88,258.55,655.44,Single-ply,SBD,M
Boys,82.1,2,Oziel Rios,Palacios,79.47,210.92,165.56,213.19,589.67,Single-ply,SBD,M
Boys,82.1,3,Trustin Norris,Van Vleck,81.51,213.19,127.01,226.8,566.99,Single-ply,SBD,M
Boys,82.1,4,Tj Combs,Hitchcock,80.97,217.72,131.54,204.12,553.38,Single-ply,SBD,M
Boys,82.1,5,Jordan Branum,Vanderbilt Industrial,81.69,210.92,131.54,190.51,532.97,Single-ply,SBD,M
Boys,82.1,6,Cody Walsh,Colmesneil,79.7,181.44,127.01,197.31,505.76,Single-ply,SBD,M
Boys,82.1,7,Eli Milner,Vanderbilt Industrial,80.2,190.51,120.2,183.7,494.42,Single-ply,SBD,M
Boys,82.1,8,Shaquille Warren,Kountze,80.06,145.15,99.79,197.31,442.25,Single-ply,SBD,M
Boys,82.1,NS,Ashton Whittle,Kountze,,,,,,Single-ply,SBD,M
Boys,82.1,DQ,Kendrick Whittington,Anahuac,75.93,,,,,Single-ply,SBD,M
Boys,82.1,DQ,Robert Serda,Winnie East Chambers,81.78,167.83,,,,Single-ply,SBD,M
Boys,89.81,1,Chris Sweat,Anahuac,86.86,217.72,161.03,224.53,603.28,Single-ply,SBD,M
Boys,89.81,2,Blaine Acevedo,Winnie East Chambers,87.91,210.92,140.61,215.46,566.99,Single-ply,SBD,M
Boys,89.81,3,Caleb Sims,Winnie East Chambers,88.45,208.65,142.88,204.12,555.65,Single-ply,SBD,M
Boys,89.81,4,Caleb Crittenden,Warren,84.37,195.04,138.35,210.92,544.31,Single-ply,SBD,M
Boys,89.81,5,Calvin Burks,Corrigan-Camden,84.14,215.46,133.81,185.97,535.24,Single-ply,SBD,M
Boys,89.81,6,Marvin Watson,Van Vleck,88.36,226.8,92.99,190.51,510.29,Single-ply,SBD,M
Boys,89.81,7,Garrett Derouen,Woodville,87.82,179.17,138.35,188.24,505.76,Single-ply,SBD,M
Boys,89.81,8,Sean Bastain,Vanderbilt Industrial,85.46,192.78,113.4,179.17,485.34,Single-ply,SBD,M
Boys,89.81,NS,Tyler Cutrer,Colmesneil,,,,,,Single-ply,SBD,M
Boys,89.81,NS,Chedrick Hanks,Newton,,,,,,Single-ply,SBD,M
Boys,89.81,NS,Zack Conner,Newton,,,,,,Single-ply,SBD,M
Boys,99.79,1,Ernest Hafford,Kountze,94.44,192.78,145.15,265.35,603.28,Single-ply,SBD,M
Boys,99.79,2,Marcus Escobedo,Hitchcock,96.84,226.8,136.08,199.58,562.45,Single-ply,SBD,M
Boys,99.79,3,Dustin Hempel,Vanderbilt Industrial,90.08,213.19,131.54,206.38,551.11,Single-ply,SBD,M
Boys,99.79,4,Juan Lopez,Winnie East Chambers,98.57,219.99,138.35,188.24,546.58,Single-ply,SBD,M
Boys,99.79,5,Trea'Von Davis,Newton,92.08,210.92,122.47,188.24,521.63,Single-ply,SBD,M
Boys,99.79,6,Carlos Alvarez,Hitchcock,92.53,201.85,129.27,185.97,517.1,Single-ply,SBD,M
Boys,99.79,7,Isiah Myers,Newton,94.53,183.7,122.47,210.92,517.1,Single-ply,SBD,M
Boys,99.79,8,Travis Alexander,Vanderbilt Industrial,97.57,185.97,117.93,174.63,478.54,Single-ply,SBD,M
Boys,99.79,DQ,Jordan Darr,East Bernard,96.3,,,,,Single-ply,SBD,M
Boys,99.79,DQ,Addison Kirkland,Corrigan-Camden,94.94,204.12,124.74,,,Single-ply,SBD,M
Boys,109.77,1,Hunter Rising,Winnie East Chambers,104.78,233.6,163.29,224.53,621.42,Single-ply,SBD,M
Boys,109.77,2,Barrett Franzen,Winnie East Chambers,103.46,206.38,145.15,217.72,569.26,Single-ply,SBD,M
Boys,109.77,3,Jorge Franco,Louise,101.06,217.72,113.4,185.97,517.1,Single-ply,SBD,M
Boys,109.77,4,Paul Hill,Van Vleck,105.73,190.51,122.47,199.58,512.56,Single-ply,SBD,M
Boys,109.77,5,Juwan Callies,Van Vleck,101.51,204.12,102.06,199.58,505.76,Single-ply,SBD,M
Boys,109.77,6,Carlos Martinez #16,Louise,100.74,219.99,113.4,167.83,501.22,Single-ply,SBD,M
Boys,109.77,7,Luis Barron,Danbury,105.1,181.44,113.4,192.78,487.61,Single-ply,SBD,M
Boys,109.77,8,Daylen Nichols,Kirbyville,100.61,188.24,113.4,165.56,467.2,Single-ply,SBD,M
Boys,109.77,9,Jarrod Brooks,Kirbyville,104.96,181.44,95.25,190.51,467.2,Single-ply,SBD,M
Boys,109.77,10,Josh Chavalier,Kountze,108.18,149.69,111.13,158.76,419.57,Single-ply,SBD,M
Boys,124.74,1,Dave Lewis,Newton,116.89,251.74,140.61,210.92,603.28,Single-ply,SBD,M
Boys,124.74,2,Logan Robinson,Edna,116.57,238.14,129.27,233.6,601.01,Single-ply,SBD,M
Boys,124.74,3,Gayland Steubing,Warren,121.61,215.46,129.27,208.65,553.38,Single-ply,SBD,M
Boys,124.74,4,Robert Ryan,Saratoga West Hardin,110.36,195.04,108.86,199.58,503.49,Single-ply,SBD,M
Boys,124.74,5,Paul Suttle,Corrigan-Camden,113.9,183.7,99.79,183.7,467.2,Single-ply,SBD,M
Boys,124.74,6,Jason Cochran,Newton,118.34,183.7,92.99,190.51,467.2,Single-ply,SBD,M
Boys,124.74,7,Tyler Parker,Kountze,116.39,161.03,122.47,170.1,453.59,Single-ply,SBD,M
Boys,124.74,8,Victor Sanchez,Hitchcock,121.56,170.1,102.06,174.63,446.79,Single-ply,SBD,M
Boys,124.74,9,Josh Leader,Hardin,114.08,172.37,106.59,165.56,444.52,Single-ply,SBD,M
Boys,124.74,DQ,Michael Garcia,Ganado,111.54,260.82,,,,Single-ply,SBD,M
Boys,124.74,NS,Jarred Lezak,Winnie East Chambers,,,,,,Single-ply,SBD,M
Boys,124.74+,1,Hunter Bergeron,Anahuac,133.36,249.48,145.15,235.87,630.49,Single-ply,SBD,M
Boys,124.74+,2,Gray Laskoskie,Hitchcock,154.81,219.99,158.76,208.65,587.4,Single-ply,SBD,M
Boys,124.74+,3,Lj Randolph,Hardin,125.65,272.16,104.33,208.65,585.13,Single-ply,SBD,M
Boys,124.74+,4,Tyandre Cooper,Kirbyville,130.41,213.19,127.01,217.72,557.92,Single-ply,SBD,M
Boys,124.74+,5,Michael Evans,Warren,130.5,197.31,136.08,204.12,537.51,Single-ply,SBD,M
Boys,124.74+,6,Eric Mills,Hitchcock,136.98,217.72,127.01,185.97,530.7,Single-ply,SBD,M
Boys,124.74+,7,Lincoln Herrington,Newton,127.37,195.04,127.01,190.51,512.56,Single-ply,SBD,M
Boys,124.74+,NS,Brent Simmons,Newton,,,,,,Single-ply,SBD,M
Boys,124.74+,NS,Daniel Ogrodowicz,Woodville,,,,,,Single-ply,SBD,M
Boys,124.74+,DQ,Logan McCoy,Woodville,125.19,204.12,115.67,,,Single-ply,SBD,M
