Division,WeightClassKg,Place,Name,Team,BodyweightKg,Best3SquatKg,Best3BenchKg,Best3DeadliftKg,TotalKg,Equipment,Event,Sex
Boys,51.71,1,Ryan Dean,Waco Midway,51.26,124.74,77.11,140.61,342.46,Single-ply,SBD,M
Boys,51.71,2,Abraham Villareal,Belton,51.35,120.2,58.97,156.49,335.66,Single-ply,SBD,M
Boys,51.71,3,Justin Sultenfuss,Little River Academy,51.53,95.25,56.7,113.4,265.35,Single-ply,SBD,M
Boys,51.71,4,Jacob Noyolla,Little River Academy,49.17,92.99,49.9,120.2,263.08,Single-ply,SBD,M
Boys,51.71,5,Curvon Cunningham,Temple,50.89,86.18,52.16,104.33,242.67,Single-ply,SBD,M
Boys,51.71,6,Eliazar Venegas,Waco Midway,42.55,86.18,49.9,102.06,238.14,Single-ply,SBD,M
Boys,51.71,7,Owen Mallard,Georgetown,47.81,88.45,49.9,90.72,229.06,Single-ply,SBD,M
Boys,51.71,8,Garrett Cooper,Waco Midway,50.62,77.11,54.43,92.99,224.53,Single-ply,SBD,M
Boys,55.79,1,Nick Hickman,Waco Midway,54.25,115.67,77.11,131.54,324.32,Single-ply,SBD,M
Boys,55.79,2,Zaki Hill,Belton,53.52,117.93,61.23,133.81,312.98,Single-ply,SBD,M
Boys,55.79,3,Logan McMillan,Little River Academy,54.79,106.59,65.77,113.4,285.76,Single-ply,SBD,M
Boys,55.79,4,Jacob Bishop,Belton,55.16,104.33,54.43,113.4,272.16,Single-ply,SBD,M
Boys,55.79,5,Gavin Smith #2,Little River Academy,54.52,90.72,54.43,97.52,242.67,Single-ply,SBD,M
Boys,59.87,1,Isaiah Robinson,Waco Midway,58.42,172.37,99.79,199.58,471.74,Single-ply,SBD,M
Boys,59.87,2,Tye Ochoa,Temple,58.42,154.22,81.65,163.29,399.16,Single-ply,SBD,M
Boys,59.87,3,Jacob Torres,Holland,59.15,129.27,99.79,131.54,360.61,Single-ply,SBD,M
Boys,59.87,4,Bryan Shurtz,Belton,59.56,113.4,77.11,129.27,319.78,Single-ply,SBD,M
Boys,59.87,5,Ethan Blanton,Waco Midway,56.88,108.86,58.97,106.59,274.42,Single-ply,SBD,M
Boys,67.13,DQ,Carmondre Davis,Temple,60.1,,,,,Single-ply,SBD,M
Boys,67.13,1,Xavier Moffitt,Belton,66.95,188.24,99.79,238.14,526.17,Single-ply,SBD,M
Boys,74.84,2,Treston Womack,Waco Midway,67.22,181.44,108.86,181.44,471.74,Single-ply,SBD,M
Boys,67.13,3,Bradley Schwartzengraber,Copperas Cove,66.13,156.49,104.33,165.56,426.38,Single-ply,SBD,M
Boys,74.84,4,Demeatric Brandon,Belton,67.22,151.95,90.72,158.76,401.43,Single-ply,SBD,M
Boys,67.13,5,Dorrell Whitney,Temple,65.68,136.08,88.45,170.1,394.63,Single-ply,SBD,M
Boys,67.13,6,Jake LaMotte,Little River Academy,61.96,136.08,86.18,149.69,371.95,Single-ply,SBD,M
Boys,67.13,7,Eric Moore,Copperas Cove,62.23,138.35,79.38,154.22,371.95,Single-ply,SBD,M
Boys,67.13,8,Ben Bing,Waco,61.6,133.81,83.91,138.35,356.07,Single-ply,SBD,M
Boys,67.13,9,Dominique Bishop,Waco,63.05,133.81,74.84,142.88,351.53,Single-ply,SBD,M
Boys,67.13,10,Heath Barabas,Holland,66.5,122.47,83.91,120.2,326.59,Single-ply,SBD,M
Boys,67.13,11,D Stuckey,Copperas Cove,63.41,113.4,72.57,136.08,322.05,Single-ply,SBD,M
Boys,67.13,12,Troy Powers,Belton,66.86,108.86,81.65,124.74,315.25,Single-ply,SBD,M
Boys,67.13,13,Matthew Warehime,Belton,65.91,111.13,72.57,124.74,308.44,Single-ply,SBD,M
Boys,67.13,14,Cameron Przybylski,Belton,65.95,113.4,65.77,127.01,306.17,Single-ply,SBD,M
Boys,67.13,15,D Irving,Copperas Cove,64.5,104.33,74.84,124.74,303.91,Single-ply,SBD,M
Boys,67.13,16,Nolan Escover,Georgetown,61.6,120.2,65.77,115.67,301.64,Single-ply,SBD,M
Boys,67.13,17,Nathan Jones #3,Georgetown,65.14,120.2,70.31,106.59,297.1,Single-ply,SBD,M
Boys,67.13,18,Iain McVeigh,Little River Academy,66.41,99.79,58.97,122.47,281.23,Single-ply,SBD,M
Boys,67.13,19,James Martinson,Belton,66.81,104.33,63.5,90.72,258.55,Single-ply,SBD,M
Boys,67.13,20,Eric Grasso,Georgetown,66.5,74.84,52.16,122.47,249.48,Single-ply,SBD,M
Boys,67.13,21,Jacob Sosebee,Waco Midway,62.05,72.57,54.43,95.25,222.26,Single-ply,SBD,M
Boys,74.84,1,Harrell Henderson,Waco Midway,73.03,204.12,111.13,201.85,517.1,Single-ply,SBD,M
Boys,74.84,2,Bryce Williams,Little River Academy,73.03,190.51,104.33,192.78,487.61,Single-ply,SBD,M
Boys,74.84,3,Zack Smith,Little River Academy,72.85,176.9,108.86,192.78,478.54,Single-ply,SBD,M
Boys,74.84,4,Logan Hager,Georgetown,70.85,181.44,106.59,170.1,458.13,Single-ply,SBD,M
Boys,74.84,5,Miguel Anderson,Waco Midway,70.49,163.29,111.13,181.44,455.86,Single-ply,SBD,M
Boys,74.84,6,Cairo Attaway,Waco Midway,69.58,145.15,113.4,190.51,449.06,Single-ply,SBD,M
Boys,74.84,7,Leno Santos,Holland,71.67,163.29,115.67,167.83,446.79,Single-ply,SBD,M
Boys,74.84,8,Jeremy Rowe,Waco Midway,72.12,145.15,117.93,183.7,446.79,Single-ply,SBD,M
Boys,74.84,9,Eli Jordan,Copperas Cove,73.84,174.63,92.99,176.9,444.52,Single-ply,SBD,M
Boys,74.84,10,Malik Stoutamire,Temple,69.49,158.76,97.52,167.83,424.11,Single-ply,SBD,M
Boys,74.84,11,Javis Lavan,Belton,74.75,138.35,106.59,161.03,405.97,Single-ply,SBD,M
Boys,74.84,12,Gerald Wilburn,Waco,68.31,142.88,95.25,156.49,394.63,Single-ply,SBD,M
Boys,74.84,13,Garrett White,Belton,70.44,136.08,90.72,158.76,385.55,Single-ply,SBD,M
Boys,74.84,14,Brad Lawson,Copperas Cove,70.85,145.15,86.18,154.22,385.55,Single-ply,SBD,M
Boys,74.84,15,Grayson Edwards,Little River Academy,73.21,145.15,83.91,145.15,374.21,Single-ply,SBD,M
Boys,74.84,16,Richard Kimble,Belton,72.67,138.35,81.65,149.69,369.68,Single-ply,SBD,M
Boys,74.84,17,Tonee Muldrew,Belton,72.57,122.47,81.65,158.76,362.87,Single-ply,SBD,M
Boys,74.84,18,Weston Campbell,Belton,74.21,142.88,83.91,136.08,362.87,Single-ply,SBD,M
Boys,74.84,19,Evan Delgadillo,Belton,74.21,117.93,83.91,124.74,326.59,Single-ply,SBD,M
Boys,74.84,20,Drew Downing,Holland,68.49,106.59,79.38,127.01,312.98,Single-ply,SBD,M
Boys,74.84,DQ,Brent Whalen,Georgetown,70.76,,,,,Single-ply,SBD,M
Boys,82.1,1,Carlos Borbon,Temple,79.2,181.44,111.13,204.12,496.68,Single-ply,SBD,M
Boys,82.1,2,Joseph Warehime,Belton,79.06,181.44,113.4,199.58,494.42,Single-ply,SBD,M
Boys,82.1,3,Chase Heffernan,Georgetown,81.1,167.83,124.74,192.78,485.34,Single-ply,SBD,M
Boys,82.1,4,Quay Miller,Belton,81.42,181.44,106.59,195.04,483.08,Single-ply,SBD,M
Boys,82.1,5,La Charles Montgomery,Waco Midway,81.56,208.65,106.59,151.95,467.2,Single-ply,SBD,M
Boys,82.1,6,Ezekiel Jordan,Copperas Cove,78.2,183.7,95.25,183.7,462.66,Single-ply,SBD,M
Boys,82.1,7,Seth Spinn,Holland,80.74,154.22,115.67,192.78,462.66,Single-ply,SBD,M
Boys,82.1,8,Kavan Johnson,Belton,77.66,163.29,99.79,197.31,460.4,Single-ply,SBD,M
Boys,82.1,9,Nick Robinson,Waco Midway,79.47,165.56,111.13,179.17,455.86,Single-ply,SBD,M
Boys,82.1,10,Buddy Curry,Belton,81.06,167.83,120.2,163.29,451.32,Single-ply,SBD,M
Boys,82.1,11,Jeremiah Leyba,Belton,81.78,167.83,99.79,156.49,424.11,Single-ply,SBD,M
Boys,82.1,12,Ronique Williams,Copperas Cove,76.2,147.42,86.18,151.95,385.55,Single-ply,SBD,M
Boys,82.1,13,Chris Whitehead,Waco,75.39,124.74,92.99,149.69,367.41,Single-ply,SBD,M
Boys,82.1,14,Noah Duran,Belton,81.33,131.54,74.84,145.15,351.53,Single-ply,SBD,M
Boys,82.1,15,J. Orr,Copperas Cove,76.57,104.33,92.99,127.01,324.32,Single-ply,SBD,M
Boys,82.1,16,Nick Corona,Georgetown,78.11,127.01,70.31,127.01,324.32,Single-ply,SBD,M
Boys,82.1,17,Joshua Klingensmith,Belton,78.93,106.59,68.04,129.27,303.91,Single-ply,SBD,M
Boys,82.1,DQ,Aaron Martinez,Belton,80.83,,,,,Single-ply,SBD,M
Boys,82.1,DQ,T. Powell,Copperas Cove,80.47,,,,,Single-ply,SBD,M
Boys,89.81,1,Korey Chatman,Waco Midway,83.64,229.06,147.42,240.4,616.89,Single-ply,SBD,M
Boys,89.81,2,Nika Davis,Waco,88,215.46,131.54,229.06,576.06,Single-ply,SBD,M
Boys,89.81,3,Aj Head,Waco Midway,88.99,190.51,136.08,204.12,530.7,Single-ply,SBD,M
Boys,89.81,4,Marques Hatcher,Temple,84.73,204.12,95.25,210.92,510.29,Single-ply,SBD,M
Boys,89.81,5,Ryan Johnson #16,Belton,86.77,204.12,108.86,195.04,508.02,Single-ply,SBD,M
Boys,89.81,6,Eric Cuffee,Waco,84.91,158.76,120.2,188.24,467.2,Single-ply,SBD,M
Boys,89.81,7,John Harvey,Belton,84.55,181.44,92.99,183.7,458.13,Single-ply,SBD,M
Boys,89.81,8,T Hawkins,Copperas Cove,85.64,174.63,102.06,176.9,453.59,Single-ply,SBD,M
Boys,89.81,9,Olajuwan Taylor,Belton,86.36,158.76,104.33,167.83,430.91,Single-ply,SBD,M
Boys,89.81,10,Ben Purcell,Georgetown,86.91,154.22,92.99,172.37,419.57,Single-ply,SBD,M
Boys,89.81,11,J. Robbins,Copperas Cove,85.46,140.61,90.72,158.76,390.09,Single-ply,SBD,M
Boys,89.81,12,Davidson Nmesirionye,Belton,85.59,161.03,72.57,145.15,378.75,Single-ply,SBD,M
Boys,89.81,13,Shawn Wall,Belton,89.63,136.08,83.91,156.49,376.48,Single-ply,SBD,M
Boys,89.81,14,Reagan Chapman #2,Belton,89.72,113.4,79.38,149.69,342.46,Single-ply,SBD,M
Boys,89.81,DQ,Michael Lara,Belton,85.87,,,,,Single-ply,SBD,M
Boys,99.79,1,Jon Ladner,Waco Midway,98.52,240.4,142.88,206.38,589.67,Single-ply,SBD,M
Boys,99.79,2,Roderick Harris,Waco,98.79,229.06,131.54,204.12,564.72,Single-ply,SBD,M
Boys,99.79,3,OC Beasley,Waco,99.61,204.12,129.27,217.72,551.11,Single-ply,SBD,M
Boys,99.79,4,Zach Haverly,Waco Midway,90.36,176.9,113.4,210.92,501.22,Single-ply,SBD,M
Boys,99.79,5,K. James,Copperas Cove,96.89,161.03,115.67,172.37,449.06,Single-ply,SBD,M
Boys,99.79,6,Alex Ramos #3,Holland,96.89,163.29,92.99,167.83,424.11,Single-ply,SBD,M
Boys,99.79,7,Nickolas Baker,Belton,98.52,156.49,97.52,170.1,424.11,Single-ply,SBD,M
Boys,99.79,8,Bryce Avilla,Belton,99.47,138.35,104.33,158.76,401.43,Single-ply,SBD,M
Boys,99.79,9,Ozbourne Seuteni,Belton,99.47,124.74,81.65,181.44,387.82,Single-ply,SBD,M
Boys,99.79,10,Bailey Pecock,Belton,94.26,140.61,104.33,138.35,383.29,Single-ply,SBD,M
Boys,99.79,11,Dameion Cavazos,Georgetown,98.97,163.29,104.33,108.86,376.48,Single-ply,SBD,M
Boys,99.79,12,Chase Travis,Georgetown,99.61,147.42,86.18,129.27,362.87,Single-ply,SBD,M
Boys,99.79,13,Tyler Griffet,Belton,98.57,149.69,79.38,127.01,356.07,Single-ply,SBD,M
Boys,99.79,14,Andrew Roman,Georgetown,97.52,131.54,77.11,131.54,340.19,Single-ply,SBD,M
Boys,99.79,15,Jerrod Jackson,Belton,94.03,115.67,86.18,127.01,328.85,Single-ply,SBD,M
Boys,109.77,1,Xavier Bryant,Temple,101.06,258.55,181.44,260.82,700.8,Single-ply,SBD,M
Boys,109.77,2,Collin McMillan,Little River Academy,109.77,242.67,163.29,256.28,662.24,Single-ply,SBD,M
Boys,109.77,3,Travis Lock,Temple,108.32,226.8,140.61,235.87,603.28,Single-ply,SBD,M
Boys,109.77,4,Derrick Moore,Waco,108.95,222.26,133.81,219.99,576.06,Single-ply,SBD,M
Boys,109.77,5,Kentrell Chandler,Temple,105.05,204.12,120.2,208.65,532.97,Single-ply,SBD,M
Boys,109.77,6,Gilberto Hernandez,Temple,103.78,181.44,136.08,204.12,521.63,Single-ply,SBD,M
Boys,109.77,7,Sergio Hernandez,Temple,106.14,181.44,122.47,192.78,496.68,Single-ply,SBD,M
Boys,109.77,8,Drew Hughlett,Waco Midway,103.42,158.76,95.25,158.76,412.77,Single-ply,SBD,M
Boys,109.77,9,Rj Hermes,Copperas Cove,105.14,163.29,113.4,136.08,412.77,Single-ply,SBD,M
Boys,109.77,10,Allen Harlow,Belton,102.24,127.01,92.99,122.47,342.46,Single-ply,SBD,M
Boys,109.77,DQ,G Gastello,Copperas Cove,104.96,192.78,,,,Single-ply,SBD,M
Boys,124.74,1,James Judie,Temple,119.39,256.28,142.88,263.08,662.24,Single-ply,SBD,M
Boys,124.74,2,Camryn Dotson,Waco Midway,124.28,226.8,154.22,272.16,653.17,Single-ply,SBD,M
Boys,124.74,3,David Lopez,Temple,116.21,249.48,167.83,217.72,635.03,Single-ply,SBD,M
Boys,124.74,4,Tanner Morgan,Temple,121.02,249.48,138.35,247.21,635.03,Single-ply,SBD,M
Boys,124.74,5,Braden Martinez,Belton,119.88,249.48,127.01,229.06,605.55,Single-ply,SBD,M
Boys,124.74,6,O'Sha Soloman,Temple,117.48,231.33,161.03,206.38,598.74,Single-ply,SBD,M
Boys,124.74,7,Jose Lopez,Temple,122.56,206.38,151.95,195.04,553.38,Single-ply,SBD,M
Boys,124.74,8,Justin Melton,Temple,122.47,192.78,136.08,208.65,537.51,Single-ply,SBD,M
Boys,124.74,9,Aaron Johnson #15,Georgetown,115.76,226.8,124.74,181.44,532.97,Single-ply,SBD,M
Boys,124.74,10,Drew Thigpen,Belton,120.38,217.72,122.47,188.24,528.44,Single-ply,SBD,M
Boys,124.74,11,Phillip Lynch,Temple,120.38,208.65,120.2,195.04,523.9,Single-ply,SBD,M
Boys,124.74,12,Lupe Santos,Holland,123.56,174.63,142.88,181.44,498.95,Single-ply,SBD,M
Boys,124.74,13,Trevion Freeman,Waco,122.56,181.44,120.2,161.03,462.66,Single-ply,SBD,M
Boys,124.74+,1,Devontae Moore,Temple,152.23,342.46,226.8,272.16,841.41,Single-ply,SBD,M
Boys,124.74+,2,Tyler Preston,Georgetown,126.64,294.84,185.97,263.08,743.89,Single-ply,SBD,M
Boys,124.74+,3,Grayson Eaton,Little River Academy,159.57,272.16,172.37,206.38,650.91,Single-ply,SBD,M
Boys,124.74+,4,Rodarious Birks,Belton,125.65,260.82,133.81,199.58,594.21,Single-ply,SBD,M
Boys,124.74+,5,Dalton Hays,Waco Midway,140.34,256.28,133.81,179.17,569.26,Single-ply,SBD,M
Boys,124.74+,6,Devon Meshack,Temple,138.8,204.12,136.08,183.7,523.9,Single-ply,SBD,M
Boys,124.74+,7,Jermaine Townsend,Temple,134.9,181.44,113.4,208.65,503.49,Single-ply,SBD,M
Boys,124.74+,8,Joseph Gonzalez,Waco,128.73,181.44,111.13,185.97,478.54,Single-ply,SBD,M
Boys,124.74+,9,C Kornellius,Copperas Cove,130.18,154.22,115.67,183.7,453.59,Single-ply,SBD,M
Boys,124.74+,10,Hunter Carter,Belton,128.46,163.29,108.86,149.69,421.84,Single-ply,SBD,M
