Place,Sex,Name,Event,Division,WeightClassKg,Equipment,BodyweightKg,Best3SquatKg,Best3BenchKg,Best3DeadliftKg,TotalKg,BirthYear
1,M,Angelo Martinez,SBD,M-T3,53,Single-ply,52.8,112.5,67.5,115,295,1995
1,M,Austin Martin #1,SBD,M-T3,74,Single-ply,71.7,220,160,245,625,
1,M,James Haworth,SBD,M-T3,83,Single-ply,82.2,240,157.5,255,652.5,1995
1,M,Devin Lane,SBD,M-T3,93,Single-ply,89.1,245,160,240,645,1995
1,M,Aly Mohamed,SBD,M-T3,105,Single-ply,102.8,215,135,235,585,1995
2,M,Grant Senft,SBD,M-T3,105,Single-ply,103.9,240,105,240,585,1995
1,M,Seth Kirchner,SBD,M-T3,120,Single-ply,112.4,272.5,140,260,672.5,1995
1,M,Dalton LaCoe,SBD,M-Jr,53,Single-ply,52.6,200,117.5,230,547.5,1995
2,M,Matt Devine,SBD,M-Jr,53,Single-ply,50.4,140,92.5,162.5,395,1997
3,M,Israel Castro,SBD,M-Jr,53,Single-ply,52.5,110,77.5,117.5,305,1992
4,M,Zachary Newman,SBD,M-Jr,53,Single-ply,51.6,115,72.5,115,302.5,1992
1,M,Henry Hsu,SBD,M-Jr,66,Single-ply,65.5,220,145,220,585,1994
2,M,Nick Desantis,SBD,M-Jr,66,Single-ply,65.4,192.5,97.5,190,480,
3,M,Ryan Devine,SBD,M-Jr,66,Single-ply,65.7,167.5,127.5,180,475,1994
4,M,Mitchell Gruver,SBD,M-Jr,66,Single-ply,65.6,162.5,102.5,172.5,437.5,1993
1,M,Thomas Evans #3,SBD,M-Jr,74,Single-ply,72.6,272.5,150,277.5,700,1991
2,M,Roy Apostle,SBD,M-Jr,74,Single-ply,72.8,232.5,117.5,235,585,1991
3,M,Dominique Tan,SBD,M-Jr,74,Single-ply,72.3,175,117.5,207.5,500,1992
4,M,Josh Sampsell,SBD,M-Jr,74,Single-ply,73.2,197.5,122.5,177.5,497.5,
5,M,Daniel Reagan,SBD,M-Jr,74,Single-ply,73,157.5,102.5,235,495,1994
6,M,Micheal Hollar,SBD,M-Jr,74,Single-ply,73.6,160,147.5,185,492.5,1991
7,M,Ian West,SBD,M-Jr,74,Single-ply,66.3,147.5,82.5,147.5,377.5,1999
1,M,James Marcotte,SBD,M-Jr,83,Single-ply,83,245,215,245,705,1991
2,M,Synjen Marrocco,SBD,M-Jr,83,Single-ply,81.7,265,165,260,690,1991
3,M,Isaac Rynowecer,SBD,M-Jr,83,Single-ply,82.3,220,162.5,232.5,615,1993
4,M,Max Harir,SBD,M-Jr,83,Single-ply,79.1,187.5,120,235,542.5,1993
5,M,Joe Brittian,SBD,M-Jr,83,Single-ply,81,167.5,87.5,177.5,432.5,
1,M,Matt Cassista,SBD,M-Jr,93,Single-ply,92.8,310,202.5,295,807.5,1992
2,M,Andrew Bater,SBD,M-Jr,93,Single-ply,91.6,282.5,200,300,782.5,
3,M,Christian Baldoni,SBD,M-Jr,93,Single-ply,90.8,275,202.5,255,732.5,1993
4,M,Tom Reilly,SBD,M-Jr,93,Single-ply,90.6,275,185,250,710,
5,M,Ian Gardocki,SBD,M-Jr,93,Single-ply,86.7,210,145,230,585,1992
6,M,Alex Vignone,SBD,M-Jr,93,Single-ply,89.2,202.5,122.5,242.5,567.5,1994
7,M,Thomas Keogh,SBD,M-Jr,93,Single-ply,90,190,155,212.5,557.5,1994
1,M,Vahe Missirian,SBD,M-Jr,105,Single-ply,104.6,330,200,300,830,
2,M,Connor Senft,SBD,M-Jr,105,Single-ply,103.9,325,252.5,250,827.5,1993
3,M,Austen Deppe,SBD,M-Jr,105,Single-ply,97.8,265,152.5,247.5,665,1993
4,M,Eric Jacques,SBD,M-Jr,105,Single-ply,103.7,210,137.5,262.5,610,1994
5,M,Mark Matthews,SBD,M-Jr,105,Single-ply,102.1,227.5,127.5,232.5,587.5,1994
1,M,Chris Hughes #2,SBD,M-Jr,120,Single-ply,106.7,335,200,280,815,1993
2,M,Lee Kantowski,SBD,M-Jr,120,Single-ply,109.6,245,150,250,645,1995
3,M,Matt Stauch,SBD,M-Jr,120,Single-ply,108,205,130,160,495,1999
4,M,David Still,SBD,M-Jr,120,Single-ply,117.5,202.5,92.5,180,475,1999
1,M,Stephen King #2,SBD,M-Jr,120+,Single-ply,149.1,375,310,305,990,1992
2,M,Alexander Fletcher,SBD,M-Jr,120+,Single-ply,120.4,215,170,245,630,
3,M,Doug Walker,SBD,M-Jr,120+,Single-ply,139,240,132.5,197.5,570,1996
1,M,Jeff Book,SBD,MR-Jr,66,Raw,65,137.5,125,182.5,445,1994
1,M,Colin Capparelle,SBD,MR-Jr,74,Raw,72.9,172.5,115,197.5,485,1994
1,M,Javon Ryan,SBD,MR-Jr,83,Raw,80.1,165,112.5,212.5,490,1995
1,M,Lawrence Melillo,SBD,MR-Jr,93,Raw,92.4,202.5,170,240,612.5,1993
2,M,Stepehn Gadomski,SBD,MR-Jr,93,Raw,91.4,195,132.5,275,602.5,
3,M,Mitchell Paz,SBD,MR-Jr,93,Raw,91.2,212.5,120,267.5,600,1993
4,M,Al Roth,SBD,MR-Jr,93,Raw,89.4,212.5,127.5,242.5,582.5,1993
5,M,Shane Vanesky,SBD,MR-Jr,93,Raw,92.3,185,125,247.5,557.5,
6,M,Austin Hoffman,SBD,MR-Jr,93,Raw,93,185,122.5,230,537.5,1995
7,M,Matt Brown #3,SBD,MR-Jr,93,Raw,90.8,182.5,112.5,192.5,487.5,
1,M,Steve Mann,SBD,MR-O,120,Raw,118.4,265,205,287.5,757.5,1975
1,F,Danielle Cafiero,SBD,FR-T3,63,Raw,61,107.5,52.5,120,280,1995
1,F,Angelica Garcia,SBD,F-T3,57,Single-ply,55.8,92.5,57.5,110,260,1995
1,F,Brittany Cafiero,SBD,F-T3,63,Single-ply,62.2,107.5,50,115,272.5,1995
1,F,Jennifer Fofi,SBD,F-T3,72,Single-ply,64.2,122.5,55,115,292.5,1995
1,F,Renee Frohnert,SBD,F-Jr,52,Single-ply,52,117.5,70,112.5,300,1993
2,F,Kristen Lobo,SBD,F-Jr,52,Single-ply,50.6,97.5,52.5,120,270,1995
3,F,Kayleigh Tokash,SBD,F-Jr,52,Single-ply,51,105,45,110,260,1998
1,F,Emily Cassista,SBD,F-Jr,57,Single-ply,54.8,152.5,105,152.5,410,1992
2,F,Jeannette Cohen,SBD,F-Jr,57,Single-ply,56.3,137.5,72.5,137.5,347.5,1993
3,F,Michelle Ryan,SBD,F-Jr,57,Single-ply,55.5,140,82.5,97.5,320,1994
1,F,Sophia Veiras,SBD,F-Jr,63,Single-ply,62.7,160,100,160,420,
2,F,Jordan Green #1,SBD,F-Jr,63,Single-ply,59.6,150,87.5,155,392.5,1993
3,F,Samantha LaCoe,SBD,F-Jr,63,Single-ply,61.3,137.5,70,137.5,345,
4,F,Gina Lamm,SBD,F-Jr,63,Single-ply,61.4,75,42.5,105,222.5,1994
5,F,Lyndsay Rathbun,SBD,F-Jr,63,Single-ply,63,75,42.5,105,222.5,1993
1,F,Erika Myers,SBD,F-Jr,72,Single-ply,70.8,185,110,190,485,1990
2,F,Christina Pollick,SBD,F-Jr,72,Single-ply,64.1,152.5,90,152.5,395,1993
3,F,Danielle Burton,SBD,F-Jr,72,Single-ply,70.4,147.5,75,140,362.5,1992
4,F,Sara Pelletier,SBD,F-Jr,72,Single-ply,64.1,110,50,122.5,282.5,1994
1,F,Christie Civetta,SBD,F-Jr,84,Single-ply,81.2,160,107.5,162.5,430,1992
1,F,Monet Bland,SBD,F-Jr,84+,Single-ply,84.7,220,95,215,530,1991
2,F,Binglei Zhou,SBD,F-Jr,84+,Single-ply,99.7,200,92.5,182.5,475,1994
3,F,Alyssa McMinn,SBD,F-Jr,84+,Single-ply,94,122.5,62.5,147.5,332.5,1996
1,F,Mayra Loaiza,SBD,FR-Jr,84,Raw,78.2,135,55,137.5,327.5,1994
2,F,Anne-Marie Rizos,SBD,FR-Jr,84,Raw,76.8,100,60,127.5,287.5,1992
1,F,Eliraz Katz,SBD,F-O,63,Single-ply,62.9,162.5,72.5,162.5,397.5,1989
